/t:library
/w:0
/r:bin\Artech.Security.API.Common.dll

/r:bin\GXClasses.dll
/r:system.web.dll
/r:system.web.services.dll
/r:system.web.dll
/r:bin\Interop.GXOFFICE2Lib.dll
/r:bin\GxExcelI.dll
/r:bin\GxMail.dll
/r:system.dll
/r:system.data.dll
/r:system.data.dll
/r:bin\GeneXus.Programs.Common.dll
/r:GxBaseBuilder.dll
/out:bin\arel_contagemgerencial.dll
prc_pontualidadelotereduz.cs
prc_contagemresultado_pffinal.cs
prc_osautomatica.cs
prc_usuarioehcontratante.cs
prc_jarecebido.cs
prc_pontualidadedemandareduz.cs
prc_getindicador.cs
wwpbaseobjects\loadwwpcontext.cs
prc_pontualidadedaos.cs
prc_temindicadorfrq.cs
arel_contagemgerencial.cs
prc_countnaocnf.cs
prc_usadodocontrato.cs
prc_temindicadorpnt.cs
prc_getvalorremuneracao.cs
prc_frequenciademandareduz.cs
