/t:library
/w:0
/r:bin\Artech.Security.API.Common.dll

/r:bin\GXClasses.dll
/r:system.web.dll
/r:system.web.services.dll
/r:system.web.dll
/r:bin\Interop.GXOFFICE2Lib.dll
/r:bin\GxExcelI.dll
/r:bin\GxMail.dll
/r:system.dll
/r:system.data.dll
/r:system.data.dll
/r:bin\GeneXus.Programs.Common.dll
/r:GxBaseBuilder.dll
/out:bin\contratadacontratadausuariowc.dll
wwpbaseobjects\loadgridstate.cs
prc_novapessoacontratante.cs
prc_contratanteusuario_ehfiscal.cs
prc_getredmine.cs
prc_listadestatus.cs
contratadacontratadausuariowc.cs
wwpbaseobjects\savegridstate.cs
prc_podedesativararea.cs
prc_retornacontratantepelocnpj.cs
prc_parametrossistemaalteraflaglicensiado.cs
wwpbaseobjects\getwwptitlesettingsicons.cs
prc_usuarioehcontratantedaarea.cs
wwpbaseobjects\setwwpcontext.cs
geralog.cs
prc_enviaremailcsharp.cs
wwpbaseobjects\audittransaction.cs
prc_contagemresultadonotificacao.cs
prc_enviaremail.cs
prc_validadocumento.cs
prc_updredmine.cs
prc_entidadedousuario.cs
usuario_bc.cs
prc_parametrossistemaimagem.cs
prc_usuarioehauditorfm.cs
prc_validaremail.cs
pessoa_bc.cs
contagemresultadonotificacao_bc.cs
prc_updcstuntprd.cs
prc_newperfilgestor.cs
prc_tirardagestaodecontratos.cs
loadauditcontratante.cs
prc_usuarioemailupd.cs
audit_bc.cs
wwpbaseobjects\loadwwpcontext.cs
areatrabalho_bc.cs
loadauditusuario.cs
contratadausuario_bc.cs
prc_getusergamguid.cs
loadauditareatrabalho.cs
prc_usuarioemailget.cs
contratante_bc.cs
parametrossistema_bc.cs
