/t:library
/w:0
/r:bin\Artech.Security.API.Common.dll

/r:bin\GXClasses.dll
/r:system.web.dll
/r:system.web.services.dll
/r:system.web.dll
/r:bin\Interop.GXOFFICE2Lib.dll
/r:bin\GxExcelI.dll
/r:bin\GxMail.dll
/r:system.dll
/r:system.data.dll
/r:system.data.dll
/r:bin\GeneXus.Programs.Common.dll
/r:GxBaseBuilder.dll
/out:bin\contagemcontagemitemwc.dll
wwpbaseobjects\savegridstate.cs
prc_fapfcomplexidade.cs
prc_funcaoapf_ar.cs
wwpbaseobjects\loadwwpcontext.cs
wwpbaseobjects\loadgridstate.cs
contagemcontagemitemwc.cs
prc_funcaoapf_td.cs
