/t:library
/w:0
/r:bin\Artech.Security.API.Common.dll

/r:bin\GXClasses.dll
/r:system.web.dll
/r:system.web.services.dll
/r:system.web.dll
/r:bin\Interop.GXOFFICE2Lib.dll
/r:bin\GxExcelI.dll
/r:bin\GxMail.dll
/r:system.dll
/r:system.data.dll
/r:system.data.dll
/r:bin\GeneXus.Programs.Common.dll
/r:GxBaseBuilder.dll
/out:bin\getwwfuncaousuariofilterdata.dll
prc_fupf.cs
getwwfuncaousuariofilterdata.cs
wwpbaseobjects\loadwwpcontext.cs
prc_fdcomplexidade.cs
prc_fapfcomplexidade.cs
prc_funcaoapf_ar.cs
prc_funcaodados_rlr.cs
prc_funcaodados_der.cs
prc_fapfpf.cs
prc_fdpf.cs
wwpbaseobjects\loadgridstate.cs
prc_funcaoapf_td.cs
