/t:library
/w:0
/r:bin\Artech.Security.API.Common.dll

/r:bin\GXClasses.dll
/r:system.web.dll
/r:system.web.services.dll
/r:system.web.dll
/r:bin\Interop.GXOFFICE2Lib.dll
/r:bin\GxExcelI.dll
/r:bin\GxMail.dll
/r:system.dll
/r:system.data.dll
/r:system.data.dll
/r:bin\GeneXus.Programs.Common.dll
/r:GxBaseBuilder.dll
/out:bin\municipiocontratantewc.dll
audit_bc.cs
wwpbaseobjects\loadgridstate.cs
prc_enviaremailcsharp.cs
prc_contagemresultadonotificacao.cs
contagemresultadonotificacao_bc.cs
wwpbaseobjects\audittransaction.cs
prc_usuarioemailget.cs
prc_updredmine.cs
contratante_bc.cs
loadauditcontratante.cs
wwpbaseobjects\savegridstate.cs
prc_getredmine.cs
municipiocontratantewc.cs
prc_validaremail.cs
prc_enviaremail.cs
wwpbaseobjects\loadwwpcontext.cs
