/t:library
/w:0
/r:bin\Artech.Security.API.Common.dll

/r:bin\GXClasses.dll
/r:system.web.dll
/r:system.web.services.dll
/r:system.web.dll
/r:bin\Interop.GXOFFICE2Lib.dll
/r:bin\GxExcelI.dll
/r:bin\GxMail.dll
/r:system.dll
/r:system.data.dll
/r:system.data.dll
/r:bin\GeneXus.Programs.Common.dll
/r:GxBaseBuilder.dll
/out:bin\sistematabelaatributowc.dll
prc_existenomecadastrado.cs
wwpbaseobjects\loadwwpcontext.cs
atributos_bc.cs
sistematabelaatributowc.cs
prc_newatributo.cs
prc_desativarregistro.cs
prc_setnaopodedeletar.cs
tabela_bc.cs
prc_padronizastring.cs
prc_atributosexcel.cs
