/t:library
/w:0
/r:bin\Artech.Security.API.Common.dll

/r:bin\GXClasses.dll
/r:system.web.dll
/r:system.web.services.dll
/r:system.web.dll
/r:bin\Interop.GXOFFICE2Lib.dll
/r:bin\GxExcelI.dll
/r:bin\GxMail.dll
/r:system.dll
/r:system.data.dll
/r:system.data.dll
/r:bin\GeneXus.Programs.Common.dll
/r:GxBaseBuilder.dll
/out:bin\wp_novolicensiado.dll
pessoa_bc.cs
loadauditusuario.cs
prc_perfildolicensiado.cs
prc_contratanteusuario_ehfiscal.cs
gamcheckuseractivationmethod.cs
audit_bc.cs
prc_getusergamguid.cs
usuario_bc.cs
prc_entidadedousuario.cs
prc_usuarioemailupd.cs
prc_parametrossistemaalteraflaglicensiado.cs
usuarioperfil_bc.cs
wp_novolicensiado.cs
prc_usuarioehauditorfm.cs
contratadausuario_bc.cs
prc_tirardagestaodecontratos.cs
gamconverterrorstomessages.cs
wwpbaseobjects\loadwwpcontext.cs
prc_updcstuntprd.cs
wwpbaseobjects\audittransaction.cs
