{

"GxObject":{"ObjectType":"BusinessComponent","Name":"Contratante","idConnectivitySupport":"idInherit","Structure":{"Levels":[{"Name":"Contratante","ParentLevel":"","LevelName":"Contratante","Description":"Contratante","Attributes":[{"Name":"Contratante_Codigo","Caption":"Código","default":"0","AutoNumber":"true","IsKey":"true","ReadOnly":"false","AttributeType":"int","Description":"Código","Length":"6","Decimals":"0","Signed":"false","AllowDBNulls":"false","Domain":"Codigo","InternalName":"Contratante_Codigo","InputPicture":"ZZZZZ9","Type":"xs:int"},{"Name":"Contratante_PessoaCod","Caption":"Pessoa Jurídica","default":"0","SuperType":"Pessoa_Codigo","SubtypeGroup":"ST_Contratante_Pessoa","IsKey":"false","ReadOnly":"false","AttributeType":"int","Description":"Pessoa Jurídica","Length":"6","Decimals":"0","Signed":"false","AllowDBNulls":"false","Domain":"Codigo","InternalName":"Contratante_PessoaCod","InputPicture":"ZZZZZ9","Type":"xs:int"},{"Name":"Contratante_CNPJ","Caption":"CNPJ","default":"","IsKey":"false","ReadOnly":"true","AttributeType":"svchar","Description":"CNPJ","Length":"15","Decimals":"0","Signed":"false","AllowDBNulls":"true","Domain":"Docto","InternalName":"Contratante_CNPJ","DescriptionAtt":"true","InputPicture":"","Type":"xs:string"},{"Name":"Contratante_RazaoSocial","Caption":"Razão Social","default":"","IsKey":"false","ReadOnly":"true","AttributeType":"char","Description":"Razão Social","Length":"100","Decimals":"0","Signed":"false","AllowDBNulls":"true","Domain":"Nome100","InternalName":"Contratante_RazaoSocial","InputPicture":"@!","Type":"xs:string"},{"Name":"Contratante_NomeFantasia","Caption":"Nome Fantasia","default":"","IsKey":"false","ReadOnly":"false","AttributeType":"char","Description":"Nome Fantasia","Length":"100","Decimals":"0","Signed":"false","AllowDBNulls":"false","Domain":"Nome100","InternalName":"Contratante_NomeFantasia","InputPicture":"@!","Type":"xs:string"},{"Name":"Contratante_IE","Caption":"Insc. Estadual","default":"","IsKey":"false","ReadOnly":"false","AttributeType":"char","Description":"Insc. Estadual","Length":"15","Decimals":"0","Signed":"false","AllowDBNulls":"false","Domain":"IE","InternalName":"Contratante_IE","InputPicture":"","Type":"xs:string"},{"Name":"Contratante_WebSite","Caption":"Site","default":"","IsKey":"false","ReadOnly":"false","AttributeType":"svchar","Description":"Site","Length":"100","Decimals":"0","Signed":"false","AllowDBNulls":"true","InternalName":"Contratante_WebSite","InputPicture":"","Type":"xs:string"},{"Name":"Contratante_Email","Caption":"Email","default":"","IsKey":"false","ReadOnly":"false","AttributeType":"svchar","Description":"Email","Length":"100","Decimals":"0","Signed":"false","AllowDBNulls":"true","RegularExpression":"^((\\w+([-+.']\\w+)*@\\w+([-.]\\w+)*\\.\\w+([-.]\\w+)*)|(\\s*))$","Domain":"Email","InternalName":"Contratante_Email","InputPicture":"","Type":"xs:string"},{"Name":"Contratante_Telefone","Caption":"Telefone","default":"","IsKey":"false","ReadOnly":"false","AttributeType":"char","Description":"Telefone","Length":"20","Decimals":"0","Signed":"false","AllowDBNulls":"false","Domain":"Phone","InternalName":"Contratante_Telefone","InputPicture":"","Type":"xs:string"},{"Name":"Contratante_Ramal","Caption":"Ramal","default":"","IsKey":"false","ReadOnly":"false","AttributeType":"char","Description":"Ramal","Length":"10","Decimals":"0","Signed":"false","AllowDBNulls":"true","Domain":"Ramal","InternalName":"Contratante_Ramal","InputPicture":"","Type":"xs:string"},{"Name":"Contratante_Fax","Caption":"Fax","default":"","IsKey":"false","ReadOnly":"false","AttributeType":"char","Description":"Fax","Length":"20","Decimals":"0","Signed":"false","AllowDBNulls":"true","Domain":"Phone","InternalName":"Contratante_Fax","InputPicture":"","Type":"xs:string"},{"Name":"Contratante_AgenciaNome","Caption":"Contratante_Agencia Nome","default":"","IsKey":"false","ReadOnly":"false","AttributeType":"char","Description":"Contratante_Agencia Nome","Length":"50","Decimals":"0","Signed":"false","AllowDBNulls":"true","Domain":"Nome","InternalName":"Contratante_AgenciaNome","InputPicture":"@!","Type":"xs:string"},{"Name":"Contratante_AgenciaNro","Caption":"Contratante_Agencia Nro","default":"","IsKey":"false","ReadOnly":"false","AttributeType":"char","Description":"Contratante_Agencia Nro","Length":"10","Decimals":"0","Signed":"false","AllowDBNulls":"true","Domain":"Agencia","InternalName":"Contratante_AgenciaNro","InputPicture":"","Type":"xs:string"},{"Name":"Contratante_BancoNome","Caption":"Contratante_Banco Nome","default":"","IsKey":"false","ReadOnly":"false","AttributeType":"char","Description":"Contratante_Banco Nome","Length":"50","Decimals":"0","Signed":"false","AllowDBNulls":"true","Domain":"Nome","InternalName":"Contratante_BancoNome","InputPicture":"@!","Type":"xs:string"},{"Name":"Contratante_BancoNro","Caption":"Contratante_Banco Nro","default":"","IsKey":"false","ReadOnly":"false","AttributeType":"char","Description":"Contratante_Banco Nro","Length":"6","Decimals":"0","Signed":"false","AllowDBNulls":"true","Domain":"NumeroBanco","InternalName":"Contratante_BancoNro","InputPicture":"","Type":"xs:string"},{"Name":"Contratante_ContaCorrente","Caption":"Conta Corrente","default":"","IsKey":"false","ReadOnly":"false","AttributeType":"char","Description":"Conta Corrente","Length":"10","Decimals":"0","Signed":"false","AllowDBNulls":"true","Domain":"ContaCorrente","InternalName":"Contratante_ContaCorrente","InputPicture":"","Type":"xs:string"},{"Name":"Municipio_Codigo","Caption":"Código","default":"0","IsKey":"false","ReadOnly":"false","AttributeType":"int","Description":"Código","Length":"6","Decimals":"0","Signed":"false","AllowDBNulls":"true","Domain":"Codigo","InternalName":"Municipio_Codigo","InputPicture":"ZZZZZ9","Type":"xs:int"},{"Name":"Municipio_Nome","Caption":"Nome do Município","default":"","IsKey":"false","ReadOnly":"true","AttributeType":"char","Description":"Nome do Município","Length":"50","Decimals":"0","Signed":"false","AllowDBNulls":"true","Domain":"Nome","InternalName":"Municipio_Nome","InputPicture":"@!","Type":"xs:string"},{"Name":"Estado_UF","Caption":"UF","default":"","IsKey":"false","ReadOnly":"true","AttributeType":"char","Description":"UF","Length":"2","Decimals":"0","Signed":"false","AllowDBNulls":"true","Domain":"UF","InternalName":"Estado_UF","InputPicture":"@!","Type":"xs:string"},{"Name":"Contratante_Ativo","Caption":"Ativo?","default":"","IsKey":"false","ReadOnly":"false","AttributeType":"boolean","Description":"Ativo?","Length":"4","Decimals":"0","Signed":"false","AllowDBNulls":"false","Domain":"Flag","InternalName":"Contratante_Ativo","InputPicture":"","Type":"xs:string"},{"Name":"Contratante_EmailSdaHost","Caption":"Host SMTP","default":"","IsKey":"false","ReadOnly":"false","AttributeType":"svchar","Description":"Host SMTP","Length":"50","Decimals":"0","Signed":"false","AllowDBNulls":"true","InternalName":"Contratante_EmailSdaHost","InputPicture":"","Type":"xs:string"},{"Name":"Contratante_EmailSdaUser","Caption":"Usuário","default":"","IsKey":"false","ReadOnly":"false","AttributeType":"svchar","Description":"Usuário","Length":"50","Decimals":"0","Signed":"false","AllowDBNulls":"true","InternalName":"Contratante_EmailSdaUser","InputPicture":"","Type":"xs:string"},{"Name":"Contratante_EmailSdaPass","Caption":"Senha","default":"","IsKey":"false","ReadOnly":"false","AttributeType":"svchar","Description":"Senha","Length":"100","Decimals":"0","Signed":"false","AllowDBNulls":"true","InternalName":"Contratante_EmailSdaPass","InputPicture":"","Type":"xs:string"},{"Name":"Contratante_EmailSdaKey","Caption":"Key","default":"","IsKey":"false","ReadOnly":"false","AttributeType":"char","Description":"Key","Length":"32","Decimals":"0","Signed":"false","AllowDBNulls":"true","Domain":"KeyEnc","InternalName":"Contratante_EmailSdaKey","InputPicture":"","Type":"xs:string"},{"Name":"Contratante_EmailSdaAut","Caption":"Autenticação","default":"","IsKey":"false","ReadOnly":"false","AttributeType":"boolean","Description":"Autenticação","Length":"4","Decimals":"0","Signed":"false","AllowDBNulls":"true","Domain":"Flag","InternalName":"Contratante_EmailSdaAut","InputPicture":"","Type":"xs:string"},{"Name":"Contratante_EmailSdaPort","Caption":"Porta","default":"0","IsKey":"false","ReadOnly":"false","AttributeType":"int","Description":"Porta","Length":"4","Decimals":"0","Signed":"false","AllowDBNulls":"true","InternalName":"Contratante_EmailSdaPort","InputPicture":"ZZZ9","Type":"xs:int"},{"Name":"Contratante_EmailSdaSec","Caption":"Segurança","default":"0","IsKey":"false","ReadOnly":"false","AttributeType":"int","Description":"Segurança","Length":"4","Decimals":"0","Signed":"false","AllowDBNulls":"true","InternalName":"Contratante_EmailSdaSec","InputPicture":"ZZZ9","Type":"xs:int"},{"Name":"Contratante_OSAutomatica","Caption":"Numeração","default":"","IsKey":"false","ReadOnly":"false","AttributeType":"boolean","Description":"Numeração","Length":"4","Decimals":"0","Signed":"false","AllowDBNulls":"false","Domain":"Flag","InternalName":"Contratante_OSAutomatica","InputPicture":"","Type":"xs:string"},{"Name":"Contratante_SSAutomatica","Caption":"Numeração","default":"","IsKey":"false","ReadOnly":"false","AttributeType":"boolean","Description":"Numeração","Length":"4","Decimals":"0","Signed":"false","AllowDBNulls":"true","Domain":"Flag","InternalName":"Contratante_SSAutomatica","InputPicture":"","Type":"xs:string"},{"Name":"Contratante_ExisteConferencia","Caption":"Existe conferência?","default":"","IsKey":"false","ReadOnly":"false","AttributeType":"boolean","Description":"Existe conferência?","Length":"4","Decimals":"0","Signed":"false","AllowDBNulls":"false","Domain":"Flag","InternalName":"Contratante_ExisteConferencia","InputPicture":"","Type":"xs:string"},{"Name":"Contratante_LogoArquivo","Caption":"Logomarca","default":"","IsKey":"false","ReadOnly":"false","AttributeType":"bitstr","Description":"Logomarca","Length":"4","Decimals":"0","Signed":"false","AllowDBNulls":"true","InternalName":"Contratante_LogoArquivo","InputPicture":"","Type":"xs:string"},{"Name":"Contratante_InicioDoExpediente","Caption":"Inicio do Expediente","default":"","IsKey":"false","ReadOnly":"false","AttributeType":"dtime","Description":"Inicio do Expediente","Length":"-1","Decimals":"5","Signed":"false","AllowDBNulls":"true","Domain":"Time","InternalName":"Contratante_InicioDoExpediente","InputPicture":"99:99","Type":"xs:string"},{"Name":"Contratante_FimDoExpediente","Caption":"Fim do Expediente","default":"","IsKey":"false","ReadOnly":"false","AttributeType":"dtime","Description":"Fim do Expediente","Length":"-1","Decimals":"5","Signed":"false","AllowDBNulls":"true","Domain":"Time","InternalName":"Contratante_FimDoExpediente","InputPicture":"99:99","Type":"xs:string"},{"Name":"Contratante_ServicoSSPadrao","Caption":"Solicitação padrão","default":"0","IsKey":"false","ReadOnly":"false","AttributeType":"int","Description":"Solicitação padrão","Length":"6","Decimals":"0","Signed":"false","AllowDBNulls":"true","Domain":"Codigo","InternalName":"Contratante_ServicoSSPadrao","InputPicture":"ZZZZZ9","Type":"xs:int"},{"Name":"Contratante_RetornaSS","Caption":"Retorna SS?","default":"","IsKey":"false","ReadOnly":"false","AttributeType":"boolean","Description":"Retorna SS?","Length":"4","Decimals":"0","Signed":"false","AllowDBNulls":"true","Domain":"Flag","InternalName":"Contratante_RetornaSS","InputPicture":"","Type":"xs:string"},{"Name":"Contratante_SSStatusPlanejamento","Caption":"Status em planejamento","default":"","IsKey":"false","ReadOnly":"false","AttributeType":"char","Description":"Status em planejamento","Length":"1","Decimals":"0","Signed":"false","IsEnumeration":"true","EnumerationType":"StatusDemanda","AllowDBNulls":"true","Domain":"StatusDemanda","InternalName":"Contratante_SSStatusPlanejamento","InputPicture":"","Type":"xs:string"},{"Name":"Contratante_SSPrestadoraUnica","Caption":"Prestadora única?","default":"","IsKey":"false","ReadOnly":"false","AttributeType":"boolean","Description":"Prestadora única?","Length":"4","Decimals":"0","Signed":"false","AllowDBNulls":"true","Domain":"Flag","InternalName":"Contratante_SSPrestadoraUnica","InputPicture":"","Type":"xs:string"},{"Name":"Contratante_PropostaRqrSrv","Caption":"Requer serviço?","default":"","IsKey":"false","ReadOnly":"false","AttributeType":"boolean","Description":"Requer serviço?","Length":"4","Decimals":"0","Signed":"false","AllowDBNulls":"true","Domain":"Flag","InternalName":"Contratante_PropostaRqrSrv","InputPicture":"","Type":"xs:string"},{"Name":"Contratante_PropostaRqrPrz","Caption":"Requer prazo?","default":"","IsKey":"false","ReadOnly":"false","AttributeType":"boolean","Description":"Requer prazo?","Length":"4","Decimals":"0","Signed":"false","AllowDBNulls":"true","Domain":"Flag","InternalName":"Contratante_PropostaRqrPrz","InputPicture":"","Type":"xs:string"},{"Name":"Contratante_PropostaRqrEsf","Caption":"Requer esforço?","default":"","IsKey":"false","ReadOnly":"false","AttributeType":"boolean","Description":"Requer esforço?","Length":"4","Decimals":"0","Signed":"false","AllowDBNulls":"true","Domain":"Flag","InternalName":"Contratante_PropostaRqrEsf","InputPicture":"","Type":"xs:string"},{"Name":"Contratante_PropostaRqrCnt","Caption":"Requer valores?","default":"","IsKey":"false","ReadOnly":"false","AttributeType":"boolean","Description":"Requer valores?","Length":"4","Decimals":"0","Signed":"false","AllowDBNulls":"true","Domain":"Flag","InternalName":"Contratante_PropostaRqrCnt","InputPicture":"","Type":"xs:string"},{"Name":"Contratante_PropostaNvlCnt","Caption":"Nivel dos valores?","default":"0","IsKey":"false","ReadOnly":"false","AttributeType":"int","Description":"Nivel dos valores?","Length":"4","Decimals":"0","Signed":"false","IsEnumeration":"true","EnumerationType":"NivelContagem","AllowDBNulls":"true","Domain":"NivelContagem","InternalName":"Contratante_PropostaNvlCnt","InputPicture":"ZZZ9","Type":"xs:int"},{"Name":"Contratante_OSGeraOS","Caption":"Gera OS?","default":"","IsKey":"false","ReadOnly":"false","AttributeType":"boolean","Description":"Gera OS?","Length":"4","Decimals":"0","Signed":"false","AllowDBNulls":"true","Domain":"SimNao","InternalName":"Contratante_OSGeraOS","InputPicture":"","Type":"xs:string"},{"Name":"Contratante_OSGeraTRP","Caption":"Termo de Recebimento Provisório?","default":"","IsKey":"false","ReadOnly":"false","AttributeType":"boolean","Description":"Termo de Recebimento Provisório?","Length":"4","Decimals":"0","Signed":"false","AllowDBNulls":"true","Domain":"SimNao","InternalName":"Contratante_OSGeraTRP","InputPicture":"","Type":"xs:string"},{"Name":"Contratante_OSGeraTH","Caption":"Termo de Homologação?","default":"","IsKey":"false","ReadOnly":"false","AttributeType":"boolean","Description":"Termo de Homologação?","Length":"4","Decimals":"0","Signed":"false","AllowDBNulls":"true","Domain":"SimNao","InternalName":"Contratante_OSGeraTH","InputPicture":"","Type":"xs:string"},{"Name":"Contratante_OSGeraTRD","Caption":"Termo de Recebimento Definitivo?","default":"","IsKey":"false","ReadOnly":"false","AttributeType":"boolean","Description":"Termo de Recebimento Definitivo?","Length":"4","Decimals":"0","Signed":"false","AllowDBNulls":"true","Domain":"SimNao","InternalName":"Contratante_OSGeraTRD","InputPicture":"","Type":"xs:string"},{"Name":"Contratante_OSGeraTR","Caption":"Termo de Recusa?","default":"","IsKey":"false","ReadOnly":"false","AttributeType":"boolean","Description":"Termo de Recusa?","Length":"4","Decimals":"0","Signed":"false","AllowDBNulls":"true","Domain":"SimNao","InternalName":"Contratante_OSGeraTR","InputPicture":"","Type":"xs:string"},{"Name":"Contratante_OSHmlgComPnd","Caption":"Homologa com pendências","default":"","IsKey":"false","ReadOnly":"false","AttributeType":"boolean","Description":"Homologa com pendências","Length":"4","Decimals":"0","Signed":"false","AllowDBNulls":"true","Domain":"SimNao","InternalName":"Contratante_OSHmlgComPnd","InputPicture":"","Type":"xs:string"},{"Name":"Contratante_AtivoCirculante","Caption":"Ativo Circulante","default":"0","IsKey":"false","ReadOnly":"false","AttributeType":"int","Description":"Ativo Circulante","Length":"17","Decimals":"5","Signed":"true","AllowDBNulls":"true","Domain":"Valor","InternalName":"Contratante_AtivoCirculante","InputPicture":"ZZZ,ZZZ,ZZZ,ZZ9.99","Type":"xs:decimal"},{"Name":"Contratante_PassivoCirculante","Caption":"Passivo Circulante","default":"0","IsKey":"false","ReadOnly":"false","AttributeType":"int","Description":"Passivo Circulante","Length":"17","Decimals":"5","Signed":"true","AllowDBNulls":"true","Domain":"Valor","InternalName":"Contratante_PassivoCirculante","InputPicture":"ZZZ,ZZZ,ZZZ,ZZ9.99","Type":"xs:decimal"},{"Name":"Contratante_PatrimonioLiquido","Caption":"Patrimonio Liquido","default":"0","IsKey":"false","ReadOnly":"false","AttributeType":"int","Description":"Patrimonio Liquido","Length":"17","Decimals":"5","Signed":"true","AllowDBNulls":"true","Domain":"Valor","InternalName":"Contratante_PatrimonioLiquido","InputPicture":"ZZZ,ZZZ,ZZZ,ZZ9.99","Type":"xs:decimal"},{"Name":"Contratante_ReceitaBruta","Caption":"Receita Bruta","default":"0","IsKey":"false","ReadOnly":"false","AttributeType":"int","Description":"Receita Bruta","Length":"17","Decimals":"5","Signed":"true","AllowDBNulls":"true","Domain":"Valor","InternalName":"Contratante_ReceitaBruta","InputPicture":"ZZZ,ZZZ,ZZZ,ZZ9.99","Type":"xs:decimal"},{"Name":"Contratante_UsaOSistema","Caption":"Usa o Sistema","default":"","IsKey":"false","ReadOnly":"false","AttributeType":"boolean","Description":"Usa o Sistema","Length":"4","Decimals":"0","Signed":"false","AllowDBNulls":"true","Domain":"SimNao","InternalName":"Contratante_UsaOSistema","InputPicture":"","Type":"xs:string"},{"Name":"Contratante_TtlRltGerencial","Caption":"Titulo relatório gerencial","default":"Relatório Gerencial","IsKey":"false","ReadOnly":"false","AttributeType":"svchar","Description":"Titulo relatório gerencial","Length":"100","Decimals":"0","Signed":"false","AllowDBNulls":"true","InternalName":"Contratante_TtlRltGerencial","InputPicture":"","Type":"xs:string"},{"Name":"Contratante_PrzAoRtr","Caption":"Retorno da OS","default":"0","IsKey":"false","ReadOnly":"false","AttributeType":"int","Description":"Retorno da OS","Length":"4","Decimals":"0","Signed":"false","AllowDBNulls":"true","InternalName":"Contratante_PrzAoRtr","InputPicture":"ZZZ9","Type":"xs:int"},{"Name":"Contratante_PrzActRtr","Caption":"Aceite do Retorno","default":"0","IsKey":"false","ReadOnly":"false","AttributeType":"int","Description":"Aceite do Retorno","Length":"4","Decimals":"0","Signed":"false","AllowDBNulls":"true","InternalName":"Contratante_PrzActRtr","InputPicture":"ZZZ9","Type":"xs:int"},{"Name":"Contratante_RequerOrigem","Caption":"Cadastrar Origem","default":"","IsKey":"false","ReadOnly":"false","AttributeType":"boolean","Description":"Cadastrar Origem","Length":"4","Decimals":"0","Signed":"false","AllowDBNulls":"true","Domain":"SimNao","InternalName":"Contratante_RequerOrigem","InputPicture":"","Type":"xs:string"},{"Name":"Contratante_SelecionaResponsavelOS","Caption":"Seleciona o Profissional responsável pela OS?","default":"","IsKey":"false","ReadOnly":"false","AttributeType":"boolean","Description":"Seleciona o Profissional responsável pela OS?","Length":"4","Decimals":"0","Signed":"false","AllowDBNulls":"false","Domain":"SimNao","InternalName":"Contratante_SelecionaResponsavelOS","InputPicture":"","Type":"xs:string"},{"Name":"Contratante_ExibePF","Caption":"Exibir PF Bruto e Líquido?","default":"","IsKey":"false","ReadOnly":"false","AttributeType":"boolean","Description":"Exibir PF Bruto e Líquido?","Length":"4","Decimals":"0","Signed":"false","AllowDBNulls":"false","Domain":"SimNao","InternalName":"Contratante_ExibePF","InputPicture":"","Type":"xs:string"},{"Name":"Contratante_Sigla","Caption":"Sigla","default":"","IsKey":"false","ReadOnly":"false","AttributeType":"char","Description":"Sigla","Length":"15","Decimals":"0","Signed":"false","AllowDBNulls":"true","Domain":"Sigla","InternalName":"Contratante_Sigla","InputPicture":"@!","Type":"xs:string"},{"Name":"Contratante_LogoTipoArq","Caption":"Tipo","default":"","IsKey":"false","ReadOnly":"false","AttributeType":"char","Description":"Tipo","Length":"10","Decimals":"0","Signed":"false","AllowDBNulls":"true","Domain":"TipoArq","InternalName":"Contratante_LogoTipoArq","InputPicture":"","Type":"xs:string"},{"Name":"Contratante_LogoNomeArq","Caption":"Nome de arquivo","default":"","IsKey":"false","ReadOnly":"false","AttributeType":"char","Description":"Nome de arquivo","Length":"50","Decimals":"0","Signed":"false","AllowDBNulls":"true","Domain":"NomeArq","InternalName":"Contratante_LogoNomeArq","InputPicture":"","Type":"xs:string"}]}]},"Relations":{"ManyToOne":{"references":[{"Name":"PessoaContratante_PessoaCod","BusinessComponent":"Pessoa","LevelName":"Contratante","Description":"Pessoas","ForeignKey":{"KeyAttributes":[{"Name":"Contratante_PessoaCod","Type":"int","AtributeSuperType":"Pessoa_Codigo"}]},"InferredAttributes":{"Attributes":[{"Name":"Contratante_CNPJ","Type":"svchar","AtributeSuperType":"Pessoa_Docto"},{"Name":"Contratante_RazaoSocial","Type":"char","AtributeSuperType":"Pessoa_Nome"}]}}]}}}
}
