{

"GxObject":{"ObjectType":"BusinessComponent","Name":"ContagemResultadoEvidencia","idConnectivitySupport":"idInherit","Structure":{"Levels":[{"Name":"Contagemresultadoevidencia","ParentLevel":"","LevelName":"ContagemResultadoEvidencia","Description":"Anexar","Attributes":[{"Name":"ContagemResultadoEvidencia_Codigo","Caption":"Evidencia","default":"0","AutoNumber":"true","IsKey":"true","ReadOnly":"false","AttributeType":"int","Description":"Evidencia","Length":"6","Decimals":"0","Signed":"false","AllowDBNulls":"false","Domain":"Codigo","InternalName":"ContagemResultadoEvidencia_Codigo","InputPicture":"ZZZZZ9","Type":"xs:int"},{"Name":"ContagemResultado_Codigo","Caption":"Contagem Resultado_Codigo","default":"0","IsKey":"false","ReadOnly":"false","AttributeType":"int","Description":"Contagem Resultado_Codigo","Length":"6","Decimals":"0","Signed":"false","AllowDBNulls":"false","Domain":"Codigo","InternalName":"ContagemResultado_Codigo","InputPicture":"ZZZZZ9","Type":"xs:int"},{"Name":"ContagemResultado_Demanda","Caption":"Nº Referência","default":"","IsKey":"false","ReadOnly":"true","AttributeType":"svchar","Description":"Nº Referência","Length":"30","Decimals":"0","Signed":"false","AllowDBNulls":"true","InternalName":"ContagemResultado_Demanda","InputPicture":"@!","Type":"xs:string"},{"Name":"ContagemResultado_DemandaFM","Caption":"Nº OS","default":"","IsKey":"false","ReadOnly":"true","AttributeType":"svchar","Description":"Nº OS","Length":"50","Decimals":"0","Signed":"false","AllowDBNulls":"true","InternalName":"ContagemResultado_DemandaFM","InputPicture":"","Type":"xs:string"},{"Name":"Contratada_AreaTrabalhoCod","Caption":"Área de Trabalho","default":"0","IsKey":"false","ReadOnly":"true","AttributeType":"int","Description":"Área de Trabalho","Length":"6","Decimals":"0","Signed":"false","AllowDBNulls":"true","Domain":"Codigo","InternalName":"Contratada_AreaTrabalhoCod","InputPicture":"ZZZZZ9","Type":"xs:int"},{"Name":"ContagemResultado_OsFsOsFm","Caption":"OS Ref|OS","default":"","IsKey":"false","ReadOnly":"true","AttributeType":"svchar","Description":"OS Ref|OS","Length":"30","Decimals":"0","Signed":"false","AllowDBNulls":"true","InternalName":"ContagemResultado_OsFsOsFm","InputPicture":"","Type":"xs:string"},{"Name":"ContagemResultadoEvidencia_Link","Caption":"Link","default":"","IsKey":"false","ReadOnly":"false","AttributeType":"vchar","Description":"Link","Length":"2097152","Decimals":"0","Signed":"false","AllowDBNulls":"true","Domain":"Html","InternalName":"ContagemResultadoEvidencia_Link","InputPicture":"","Type":"xs:string"},{"Name":"ContagemResultadoEvidencia_Arquivo","Caption":"Arquivo","default":"","IsKey":"false","ReadOnly":"false","AttributeType":"bitstr","Description":"Arquivo","Length":"4","Decimals":"0","Signed":"false","AllowDBNulls":"true","InternalName":"ContagemResultadoEvidencia_Arquivo","InputPicture":"","Type":"xs:string"},{"Name":"ContagemResultadoEvidencia_Data","Caption":"Upload","default":"","IsKey":"false","ReadOnly":"false","AttributeType":"dtime","Description":"Upload","Length":"7","Decimals":"5","Signed":"false","AllowDBNulls":"true","InternalName":"ContagemResultadoEvidencia_Data","InputPicture":"99/99/99 99:99","Type":"xs:string"},{"Name":"ContagemResultadoEvidencia_Descricao","Caption":"Descrição","default":"","IsKey":"false","ReadOnly":"false","AttributeType":"vchar","Description":"Descrição","Length":"500","Decimals":"0","Signed":"false","AllowDBNulls":"true","Domain":"DescricaoLonga","InternalName":"ContagemResultadoEvidencia_Descricao","InputPicture":"","Type":"xs:string"},{"Name":"ContagemResultadoEvidencia_RdmnCreated","Caption":"Anexado no Redmine","default":"","IsKey":"false","ReadOnly":"false","AttributeType":"dtime","Description":"Anexado no Redmine","Length":"7","Decimals":"5","Signed":"false","AllowDBNulls":"true","InternalName":"ContagemResultadoEvidencia_RdmnCreated","InputPicture":"99/99/99 99:99","Type":"xs:string"},{"Name":"TipoDocumento_Codigo","Caption":"Tipo Documento","default":"0","IsKey":"false","ReadOnly":"false","AttributeType":"int","Description":"Tipo Documento","Length":"6","Decimals":"0","Signed":"false","AllowDBNulls":"true","Domain":"Codigo","InternalName":"TipoDocumento_Codigo","InputPicture":"ZZZZZ9","Type":"xs:int"},{"Name":"TipoDocumento_Nome","Caption":"Nome","default":"","IsKey":"false","ReadOnly":"true","AttributeType":"char","Description":"Nome","Length":"50","Decimals":"0","Signed":"false","AllowDBNulls":"true","Domain":"Nome","InternalName":"TipoDocumento_Nome","InputPicture":"@!","Type":"xs:string"},{"Name":"ContagemResultadoEvidencia_Owner","Caption":"Owner","default":"0","IsKey":"false","ReadOnly":"false","AttributeType":"int","Description":"Owner","Length":"6","Decimals":"0","Signed":"false","AllowDBNulls":"true","Domain":"Codigo","InternalName":"ContagemResultadoEvidencia_Owner","InputPicture":"ZZZZZ9","Type":"xs:int"},{"Name":"ContagemResultadoEvidencia_Entidade","Caption":"Responsável","default":"","IsKey":"false","ReadOnly":"true","AttributeType":"char","Description":"Responsável","Length":"50","Decimals":"0","Signed":"false","AllowDBNulls":"true","Domain":"Nome","InternalName":"ContagemResultadoEvidencia_Entidade","InputPicture":"@!","Type":"xs:string"},{"Name":"ContagemResultadoEvidencia_TipoArq","Caption":"Tipo","default":"","IsKey":"false","ReadOnly":"false","AttributeType":"char","Description":"Tipo","Length":"10","Decimals":"0","Signed":"false","AllowDBNulls":"true","Domain":"TipoArq","InternalName":"ContagemResultadoEvidencia_TipoArq","InputPicture":"","Type":"xs:string"},{"Name":"ContagemResultadoEvidencia_NomeArq","Caption":"Nome do Arquivo","default":"","IsKey":"false","ReadOnly":"false","AttributeType":"char","Description":"Nome do Arquivo","Length":"50","Decimals":"0","Signed":"false","AllowDBNulls":"true","Domain":"NomeArq","InternalName":"ContagemResultadoEvidencia_NomeArq","DescriptionAtt":"true","InputPicture":"","Type":"xs:string"}]}]},"Relations":{"ManyToOne":{"references":[{"Name":"ContratadaContagemResultado_ContratadaCod","BusinessComponent":"Contratada","LevelName":"ContagemResultadoEvidencia","Description":"Contratada","ForeignKey":{"KeyAttributes":[{"Name":"ContagemResultado_ContratadaCod","Type":"int","AtributeSuperType":"Contratada_Codigo"}]},"InferredAttributes":{"Attributes":[{"Name":"Contratada_AreaTrabalhoCod","Type":"int"}]}},{"Name":"ContagemResultadoContagemResultado_Codigo","BusinessComponent":"ContagemResultado","LevelName":"ContagemResultadoEvidencia","Description":"Resultado das Contagens","ForeignKey":{"KeyAttributes":[{"Name":"ContagemResultado_Codigo","Type":"int"}]},"InferredAttributes":{"Attributes":[{"Name":"ContagemResultado_ContratadaCod","Type":"int"},{"Name":"ContagemResultado_Demanda","Type":"svchar"},{"Name":"ContagemResultado_DemandaFM","Type":"svchar"},{"Name":"Contratada_AreaTrabalhoCod","Type":"int"},{"Name":"ContagemResultado_OsFsOsFm","Type":"svchar"}]}}]}}}
}
