{

"GxObject":{"ObjectType":"BusinessComponent","Name":"GpoObjCtrlResponsavel","idConnectivitySupport":"idInherit","Structure":{"Levels":[{"Name":"Gpoobjctrlresponsavel","ParentLevel":"","LevelName":"GpoObjCtrlResponsavel","Description":"Gpo Obj Ctrl Responsavel","Attributes":[{"Name":"GpoObjCtrlResponsavel_Codigo","Caption":"Gpo Obj Ctrl Responsavel_Codigo","default":"0","AutoNumber":"true","IsKey":"true","ReadOnly":"false","AttributeType":"int","Description":"Gpo Obj Ctrl Responsavel_Codigo","Length":"6","Decimals":"0","Signed":"false","AllowDBNulls":"false","Domain":"Codigo","InternalName":"GpoObjCtrlResponsavel_Codigo","InputPicture":"ZZZZZ9","Type":"xs:int"},{"Name":"GpoObjCtrlResponsavel_GpoCod","Caption":"Gpo Obj Ctrl Responsavel_Gpo Cod","default":"0","IsKey":"false","ReadOnly":"false","AttributeType":"int","Description":"Gpo Obj Ctrl Responsavel_Gpo Cod","Length":"4","Decimals":"0","Signed":"false","AllowDBNulls":"true","InternalName":"GpoObjCtrlResponsavel_GpoCod","DescriptionAtt":"true","InputPicture":"ZZZ9","Type":"xs:int"},{"Name":"GpoObjCtrlResponsavel_CteCteCod","Caption":"Contratante","default":"0","SuperType":"ContratanteUsuario_ContratanteCod","SubtypeGroup":"ST_GpoObjCtrlResponsavel_ContratanteUsuario","IsKey":"false","ReadOnly":"false","AttributeType":"int","Description":"Contratante","Length":"6","Decimals":"0","Signed":"false","AllowDBNulls":"true","Domain":"Codigo","InternalName":"GpoObjCtrlResponsavel_CteCteCod","InputPicture":"ZZZZZ9","Type":"xs:int"},{"Name":"GpoObjCtrlResponsavel_CteUsrCod","Caption":"Usuário","default":"0","SuperType":"ContratanteUsuario_UsuarioCod","SubtypeGroup":"ST_GpoObjCtrlResponsavel_ContratanteUsuario","IsKey":"false","ReadOnly":"false","AttributeType":"int","Description":"Usuário","Length":"6","Decimals":"0","Signed":"false","AllowDBNulls":"true","Domain":"Codigo","InternalName":"GpoObjCtrlResponsavel_CteUsrCod","InputPicture":"ZZZZZ9","Type":"xs:int"},{"Name":"GpoObjCtrlResponsavel_CteAreaCod","Caption":"Área de Trabalho","default":"0","IsKey":"false","ReadOnly":"true","AttributeType":"int","Description":"Área de Trabalho","Length":"6","Decimals":"0","Signed":"false","AllowDBNulls":"true","Domain":"Codigo","InternalName":"GpoObjCtrlResponsavel_CteAreaCod","InputPicture":"ZZZZZ9","Type":"xs:int"}]}]},"Relations":{"ManyToOne":{"references":[{"Name":"ContratanteUsuarioGpoObjCtrlResponsavel_CteCteCodGpoObjCtrlResponsavel_CteUsrCod","BusinessComponent":"ContratanteUsuario","LevelName":"GpoObjCtrlResponsavel","Description":"Contratante Usuario","ForeignKey":{"KeyAttributes":[{"Name":"GpoObjCtrlResponsavel_CteCteCod","Type":"int","AtributeSuperType":"ContratanteUsuario_ContratanteCod"},{"Name":"GpoObjCtrlResponsavel_CteUsrCod","Type":"int","AtributeSuperType":"ContratanteUsuario_UsuarioCod"}]},"InferredAttributes":{"Attributes":[{"Name":"GpoObjCtrlResponsavel_CteAreaCod","Type":"int","AtributeSuperType":"ContratanteUsuario_AreaTrabalhoCod"}]}},{"Name":"GpoObjCtrlResponsavelGpoObjCtrlResponsavel_CteCteCod","BusinessComponent":"GpoObjCtrlResponsavel","LevelName":"GpoObjCtrlResponsavel","Description":"Gpo Obj Ctrl Responsavel","ForeignKey":{"KeyAttributes":[{"Name":"GpoObjCtrlResponsavel_CteCteCod","Type":"int"}]},"InferredAttributes":{"Attributes":[{"Name":"GpoObjCtrlResponsavel_CteAreaCod","Type":"int"}]}}]}}}
}
